5 Manual Latin Hypercube Sampling | TAMASA APS survey
…
5.2 Using the TAMASA lhc kit

First source the TAMASA_.*_lhc functions into memory. You don’t have to bother about loading the require packages using library, it will be done in the background for you.

source("./scripts/TAMASA_lhc.R")

5.2.1 TAMASA_prepare_lhc()

The firs step is, to prepare a reference data.frame containing the values to feed to the lhc sampling function and some useful information.

(vars_df <- TAMASA_prepare_lhc())

## # A tibble: 23 x 6
##    param            values       count   mean      sd lhc_bin
##    <chr>            <named list> <dbl>  <dbl>   <dbl>   <int>
##  1 seedprice_hybrid <dbl [35]>      35  5637.  1333.        1
##  2 seedprice_local  <dbl [2]>        2  1500    707.        0
##  3 price_Urea       <int [3]>        3  1060     52.9       0
##  4 price_CAN        <int [7]>        7  1063.   125.        1
##  5 price_DAP        <int [13]>      13  1425.   169.        1
##  6 price_pesticide  <int [10]>      10 18378  11588.        1
##  7 price_fungicide  <int [5]>        5 34032  14757.        0
##  8 price_herbicide  <int [10]>      10 13180   4621.        1
##  9 N_price          <dbl [46]>      46  5886.  2411.        1
## 10 P_price          <dbl [27]>      27  9953.  3397.        1
## # … with 13 more rows
…
